{
	"type": "minecraft:empty",
	"pools": [
		{
			"rolls": {
				"type": "minecraft:uniform",
				"min": 1,
				"max": 2
			},
			"entries": [
				{
					"type": "minecraft:item",
					"name": "minecraft:stone",
					"functions": [
						{
							"function": "minecraft:set_count",
							"count": 0
						}
					]
				}
			]
		}
	]
}
