{
	"tiers": [
		{
			"total_exp_required": 0,
			"groups": [
				{
					"num_to_select": 1,
					"trades": [
						{
							"wants": [
								{
									"item": "minecraft:porkchop",
									"quantity": 7,
									"price_multiplier": 0.05
								}
							],
							"gives": [
								{
									"item": "minecraft:emerald",
									"quantity": 1
								}
							],
							"trader_exp": 2,
							"max_uses": 16,
							"reward_exp": true
						}
					]
				}
			]
		},
		{
			"total_exp_required": 10,
			"groups": [
				{
					"num_to_select": 1,
					"trades": [
						{
							"wants": [
								{
									"item": "minecraft:coal:0",
									"quantity": 15,
									"price_multiplier": 0.05
								}
							],
							"gives": [
								{
									"item": "minecraft:emerald",
									"quantity": 1
								}
							],
							"trader_exp": 10,
							"max_uses": 16,
							"reward_exp": true
						}
					]
				}
			]
		},
		{
			"total_exp_required": 70,
			"groups": [
				{
					"num_to_select": 1,
					"trades": [
						{
							"wants": [
								{
									"item": "minecraft:emerald",
									"quantity": 1,
									"price_multiplier": 0.05
								}
							],
							"gives": [
								{
									"item": "minecraft:cooked_porkchop",
									"quantity": 5
								}
							],
							"trader_exp": 5,
							"max_uses": 16,
							"reward_exp": true
						}
					]
				}
			]
		},
		{
			"total_exp_required": 150,
			"groups": [
				{
					"num_to_select": 1,
					"trades": [
						{
							"wants": [
								{
									"item": "minecraft:dried_kelp_block",
									"quantity": 10,
									"price_multiplier": 0.05
								}
							],
							"gives": [
								{
									"item": "minecraft:emerald",
									"quantity": 1
								}
							],
							"trader_exp": 30,
							"max_uses": 12,
							"reward_exp": true
						}
					]
				}
			]
		},
		{
			"total_exp_required": 250,
			"groups": [
				{
					"num_to_select": 1,
					"trades": [
						{
							"wants": [
								{
									"item": "minecraft:sweet_berries",
									"quantity": 10,
									"price_multiplier": 0.05
								}
							],
							"gives": [
								{
									"item": "minecraft:emerald",
									"quantity": 1
								}
							],
							"trader_exp": 30,
							"max_uses": 12,
							"reward_exp": true
						}
					]
				}
			]
		}
	]
}
